{
    "visualizations": {
        "viz_ZFtHKWC4": {
            "type": "splunk.singlevalue",
            "dataSources": {
                "primary": "ds_nrDUS3sx"
            },
            "title": "Logical Switch Audits",
            "description": "Count of events"
        },
        "viz_s49BdpdQ": {
            "type": "splunk.table",
            "dataSources": {
                "primary": "ds_KaqhLjWP"
            },
            "title": "Logical Switch Audit Details",
            "options": {},
            "context": {},
            "showProgressBar": false,
            "showLastUpdated": false
        },
        "viz_hF0v9KHb": {
            "type": "splunk.singlevalue",
            "dataSources": {
                "primary": "ds_V8MBJPEJ"
            },
            "title": "Logical Switch Port Audits",
            "description": "Count of events"
        },
        "viz_MoHPL9Lr": {
            "type": "splunk.table",
            "dataSources": {
                "primary": "ds_OGMUjJyW"
            },
            "title": "Logical Switch Port Audit Details",
            "options": {},
            "context": {},
            "showProgressBar": false,
            "showLastUpdated": false
        },
        "viz_wyxo9A0R": {
            "type": "splunk.singlevalue",
            "dataSources": {
                "primary": "ds_p9lXLZxo"
            },
            "title": "Logical Router Audits",
            "description": "Count of events"
        },
        "viz_8J1KKc2s": {
            "type": "splunk.table",
            "dataSources": {
                "primary": "ds_WVi2OrFk"
            },
            "title": "Logical Router Audits Detail",
            "options": {},
            "context": {},
            "showProgressBar": false,
            "showLastUpdated": false,
            "eventHandlers": [
                {
                    "type": "drilldown.linkToDashboard",
                    "options": {
                        "app": "search",
                        "dashboard": "nsx_logical_router"
                    }
                }
            ]
        },
        "viz_tArvM7aH": {
            "type": "splunk.singlevalue",
            "dataSources": {
                "primary": "ds_xHBDdyrq_ds_p9lXLZxo"
            },
            "title": "Logical Router Port Audits",
            "description": "Count of events"
        },
        "viz_RBax75oU": {
            "type": "splunk.table",
            "dataSources": {
                "primary": "ds_iDimwXrT_ds_WVi2OrFk"
            },
            "title": "Logical Router Port Audit Details",
            "options": {},
            "context": {},
            "showProgressBar": false,
            "showLastUpdated": false,
            "eventHandlers": [
                {
                    "type": "drilldown.linkToDashboard",
                    "options": {
                        "app": "search",
                        "dashboard": "nsx_logical_router"
                    }
                }
            ]
        },
        "viz_tmlPiamy": {
            "type": "splunk.singlevalue",
            "dataSources": {
                "primary": "ds_yNHsUfdM_ds_xHBDdyrq_ds_p9lXLZxo"
            },
            "title": "Firewall Change Audits",
            "description": "Count of events"
        },
        "viz_7tOzGACI": {
            "type": "splunk.table",
            "dataSources": {
                "primary": "ds_kleu2lSw_ds_iDimwXrT_ds_WVi2OrFk"
            },
            "title": "Logical Firewall Audit Details",
            "options": {},
            "context": {},
            "showProgressBar": false,
            "showLastUpdated": false,
            "eventHandlers": [
                {
                    "type": "drilldown.linkToDashboard",
                    "options": {
                        "app": "search",
                        "dashboard": "nsx_distributed_firewall_overview"
                    }
                }
            ]
        },
        "viz_gyyVlCRO": {
            "type": "splunk.singlevalue",
            "dataSources": {
                "primary": "ds_t5CdXBkK_ds_yNHsUfdM_ds_xHBDdyrq_ds_p9lXLZxo"
            },
            "title": "Firewall Traffic Audit",
            "description": "Count of events"
        },
        "viz_PJDthxuD": {
            "type": "splunk.table",
            "dataSources": {
                "primary": "ds_dUq4mTVY_ds_kleu2lSw_ds_iDimwXrT_ds_WVi2OrFk"
            },
            "title": "NSX Firewall Traffic Details",
            "showProgressBar": false,
            "showLastUpdated": false,
            "eventHandlers": [
                {
                    "type": "drilldown.linkToDashboard",
                    "options": {
                        "app": "search",
                        "dashboard": "nsx_distributed_firewall_traffic"
                    }
                }
            ]
        },
        "viz_eJlMG986": {
            "type": "splunk.table",
            "dataSources": {
                "primary": "ds_JYbW2Re0_ds_dUq4mTVY_ds_kleu2lSw_ds_iDimwXrT_ds_WVi2OrFk"
            },
            "title": "Cluster Backup Details",
            "showProgressBar": false,
            "showLastUpdated": false,
            "eventHandlers": [
                {
                    "type": "drilldown.linkToDashboard",
                    "options": {
                        "app": "search",
                        "dashboard": "nsx_backup"
                    }
                }
            ]
        },
        "viz_cdMNqeK5": {
            "type": "splunk.singlevalue",
            "dataSources": {
                "primary": "ds_rkb8gxjg_ds_t5CdXBkK_ds_yNHsUfdM_ds_xHBDdyrq_ds_p9lXLZxo"
            },
            "title": "Successful Cluster Backups",
            "description": "Count of events"
        },
        "viz_z6LgzmDX": {
            "type": "splunk.table",
            "dataSources": {
                "primary": "ds_J9rGwkKv_ds_JYbW2Re0_ds_dUq4mTVY_ds_kleu2lSw_ds_iDimwXrT_ds_WVi2OrFk"
            },
            "title": "NSX DHCP Details",
            "showProgressBar": false,
            "showLastUpdated": false,
            "eventHandlers": [
                {
                    "type": "drilldown.linkToDashboard",
                    "options": {
                        "app": "search",
                        "dashboard": "nsx_dhcp_overview"
                    }
                }
            ]
        },
        "viz_khw19YMn": {
            "type": "splunk.singlevalue",
            "dataSources": {
                "primary": "ds_r5rC5tkl_ds_rkb8gxjg_ds_t5CdXBkK_ds_yNHsUfdM_ds_xHBDdyrq_ds_p9lXLZxo"
            },
            "title": "DHCP Change Audits",
            "description": "Count of events"
        },
        "viz_Yc0NO3bu": {
            "type": "splunk.singlevalue",
            "dataSources": {
                "primary": "ds_Nxuqq9oj_ds_r5rC5tkl_ds_rkb8gxjg_ds_t5CdXBkK_ds_yNHsUfdM_ds_xHBDdyrq_ds_p9lXLZxo"
            },
            "title": "NSX Infratructure Errors",
            "description": "Count of events"
        },
        "viz_jZ3LNBJi": {
            "type": "splunk.table",
            "dataSources": {
                "primary": "ds_yuP5zDvY_ds_J9rGwkKv_ds_JYbW2Re0_ds_dUq4mTVY_ds_kleu2lSw_ds_iDimwXrT_ds_WVi2OrFk"
            },
            "title": "NSX Infratructure Errors Details",
            "showProgressBar": false,
            "showLastUpdated": false,
            "eventHandlers": [
                {
                    "type": "drilldown.linkToDashboard",
                    "options": {
                        "app": "search",
                        "dashboard": "nsx_infrastructure"
                    }
                }
            ]
        }
    },
    "dataSources": {
        "ds_nrDUS3sx": {
            "type": "ds.search",
            "options": {
                "query": "index=nsx sourcetype=\"nsx:switching\" comp=\"nsx-manager\" status=\"success\" operation IN (\"CreateLogicalSwitch\",\"UpdateLogicalSwitch\",\"DeleteLogicalSwitch\")\n| stats count \n| appendpipe [stats count \n| eval NoResult=\"\" \n| where count=0 \n| fields - count]",
                "queryParameters": {
                    "earliest": "$global_time.earliest$",
                    "latest": "$global_time.latest$"
                }
            },
            "name": "Logical_Switch_Audits"
        },
        "ds_KaqhLjWP": {
            "type": "ds.search",
            "options": {
                "queryParameters": {
                    "earliest": "$global_time.earliest$",
                    "latest": "$global_time.latest$"
                },
                "query": "index=nsx sourcetype=\"nsx:switching\" comp=\"nsx-manager\" status=\"success\" \noperation IN ( \"CreateLogicalSwitch\",\"UpdateLogicalSwitch\",\"DeleteLogicalSwitch\" )\n| stats count as Count,first(_time) as time \nby user operation object_id \n| eval time=strftime(time,\"%+\") \n| table time user operation object_id Count"
            },
            "name": "Logical_Switch_Audit_Details"
        },
        "ds_V8MBJPEJ": {
            "type": "ds.search",
            "options": {
                "query": "index=nsx sourcetype=\"nsx:switching\" comp=\"nsx-manager\" status=\"success\"  operation IN (\"CreateLogicalPort\",\"UpdateLogicalPort\",\"DeleteLogicalPort\" )\n| stats count \n| appendpipe [stats count \n| eval NoResult=\"\" \n| where count=0 \n| fields - count]",
                "queryParameters": {
                    "earliest": "$global_time.earliest$",
                    "latest": "$global_time.latest$"
                }
            },
            "name": "Logical_Switch_Port_Audits"
        },
        "ds_OGMUjJyW": {
            "type": "ds.search",
            "options": {
                "queryParameters": {
                    "earliest": "$global_time.earliest$",
                    "latest": "$global_time.latest$"
                },
                "query": "index=nsx sourcetype=\"nsx:switching\" comp=\"nsx-manager\" status=\"success\" \noperation IN ( \"CreateLogicalPort\",\"UpdateLogicalPort\",\"DeleteLogicalPort\" )\n| stats count as Count,first(_time) as time by user operation object_id \n| eval time=strftime(time,\"%+\") \n| table time user operation object_id Count"
            },
            "name": "Logical_Switch_Port_Audit_Details"
        },
        "ds_p9lXLZxo": {
            "type": "ds.search",
            "options": {
                "query": "index=nsx sourcetype=\"nsx:routing\" comp=\"nsx-manager\" status=\"success\"  operation IN  (\"CreateLogicalRouter\",\"UpdateLogicalRouter\",\"DeleteLogicalRouter\" )\n| stats count \n| appendpipe [stats count \n| eval NoResult=\"\"\n| where count=0 \n| fields - count]",
                "queryParameters": {
                    "earliest": "$global_time.earliest$",
                    "latest": "$global_time.latest$"
                }
            },
            "name": "Logical_Router_Audits"
        },
        "ds_WVi2OrFk": {
            "type": "ds.search",
            "options": {
                "query": "index=nsx sourcetype=\"nsx:routing\" comp=\"nsx-manager\" status=\"success\" \noperation IN  (\"CreateLogicalRouter\",\"UpdateLogicalRouter\",\"DeleteLogicalRouter\")\n| stats count as Count,first(_time) as time by user operation object_id \n| eval time=strftime(time,\"%+\") \n| table time user operation object_id Count",
                "queryParameters": {
                    "earliest": "$global_time.earliest$",
                    "latest": "$global_time.latest$"
                }
            },
            "name": "Logical_Router_Audits_Detail"
        },
        "ds_xHBDdyrq_ds_p9lXLZxo": {
            "type": "ds.search",
            "options": {
                "query": "index=nsx sourcetype=\"nsx:routing\" comp=\"nsx-manager\" status=\"success\" \n operation IN (\"CreateLogicalRouterPort\",\"UpdateLogicalRouterPort\",\"DeleteLogicalRouterPort\")\n| stats count \n| appendpipe [stats count \n| eval NoResult=\"\"\n| where count=0 \n| fields - count]",
                "queryParameters": {
                    "earliest": "$global_time.earliest$",
                    "latest": "$global_time.latest$"
                }
            },
            "name": "Logical_Router_Port_Audits"
        },
        "ds_iDimwXrT_ds_WVi2OrFk": {
            "type": "ds.search",
            "options": {
                "query": "index=nsx sourcetype=\"nsx:routing\" comp=\"nsx-manager\" status=\"success\" \n operation IN (\"CreateLogicalRouterPort\",\"UpdateLogicalRouterPort\",\"DeleteLogicalRouterPort\")\n| stats count as Count,first(_time) as time by user operation object_id \n| eval time=strftime(time,\"%+\") \n| table time user operation object_id Count",
                "queryParameters": {
                    "earliest": "$global_time.earliest$",
                    "latest": "$global_time.latest$"
                }
            },
            "name": "Logical_Router_Port_Audits_Detail"
        },
        "ds_yNHsUfdM_ds_xHBDdyrq_ds_p9lXLZxo": {
            "type": "ds.search",
            "options": {
                "query": "index=nsx sourcetype=\"nsx:nsx_firewall\" comp=\"nsx-manager\" status=\"success\"  operation IN (\"AddSection\",\"UpdateSectionWithRules\",\"DeleteSection\")\n| stats count \n| appendpipe [stats count \n| eval NoResult=\"\" \n| where count=0 \n| fields - count]",
                "queryParameters": {
                    "earliest": "$global_time.earliest$",
                    "latest": "$global_time.latest$"
                }
            },
            "name": "Logical_Firewall_Audit"
        },
        "ds_kleu2lSw_ds_iDimwXrT_ds_WVi2OrFk": {
            "type": "ds.search",
            "options": {
                "query": "index=nsx sourcetype=\"nsx:nsx_firewall\" comp=\"nsx-manager\" status=\"success\" \noperation IN ( \"AddSection\",\"UpdateSectionWithRules\",\"DeleteSection\")\n| stats count as Count,first(_time) as time by user operation object_id \n| eval time=strftime(time,\"%+\") \n| table time user operation object_id Count",
                "queryParameters": {
                    "earliest": "$global_time.earliest$",
                    "latest": "$global_time.latest$"
                }
            },
            "name": "Logical_Firewall_Audits_Detail"
        },
        "ds_t5CdXBkK_ds_yNHsUfdM_ds_xHBDdyrq_ds_p9lXLZxo": {
            "type": "ds.search",
            "options": {
                "query": "index=nsx (tag=network AND tag=communicate)\n| stats count\n| appendpipe [stats count \n| eval NoResult=\"\" \n| where count=0 \n| fields - count]",
                "queryParameters": {
                    "earliest": "$global_time.earliest$",
                    "latest": "$global_time.latest$"
                }
            },
            "name": "NSX_Firewall_Audit"
        },
        "ds_dUq4mTVY_ds_kleu2lSw_ds_iDimwXrT_ds_WVi2OrFk": {
            "type": "ds.search",
            "options": {
                "query": "index=nsx (tag=network AND tag=communicate)\n| stats count by src dest\n| sort 50 -count",
                "queryParameters": {
                    "earliest": "$global_time.earliest$",
                    "latest": "$global_time.latest$"
                }
            },
            "name": "NSX_Firewall_Trafic_Details"
        },
        "ds_JYbW2Re0_ds_dUq4mTVY_ds_kleu2lSw_ds_iDimwXrT_ds_WVi2OrFk": {
            "type": "ds.search",
            "options": {
                "query": "index=nsx  sourcetype=\"nsx:syslog\" comp=\"nsx-manager\" subcomp=\"manager\" s2comp=\"backup-restore\" message=\"Cluster backup completed*\"\n| table _time message host",
                "queryParameters": {
                    "earliest": "$global_time.earliest$",
                    "latest": "$global_time.latest$"
                }
            },
            "name": "Cluster Backup Details"
        },
        "ds_rkb8gxjg_ds_t5CdXBkK_ds_yNHsUfdM_ds_xHBDdyrq_ds_p9lXLZxo": {
            "type": "ds.search",
            "options": {
                "query": "index=nsx  sourcetype=\"nsx:syslog\" comp=\"nsx-manager\" subcomp=\"manager\" s2comp=\"backup-restore\" message=\"Cluster backup completed successfully.\"\n| stats count \n| appendpipe [stats count \n| eval NoResult=\"\" \n| where count=0 \n| fields - count]",
                "queryParameters": {
                    "earliest": "$global_time.earliest$",
                    "latest": "$global_time.latest$"
                }
            },
            "name": "NSX_Successful_Cluster_backups"
        },
        "ds_J9rGwkKv_ds_JYbW2Re0_ds_dUq4mTVY_ds_kleu2lSw_ds_iDimwXrT_ds_WVi2OrFk": {
            "type": "ds.search",
            "options": {
                "query": "index=nsx sourcetype=\"nsx:dhcp\" comp=\"nsx-manager\"\nstatus=\"success\"\noperation IN (\"CreateDhcpProfile\",\"CreateDhcpServer\",\"CreateDhcpStaticBinding\",\"CreateDhcpIpPool\",\"UpdateDhcpProfile\",\"UpdateDhcpServer\",\"UpdateDhcpStaticBinding\",\"UpdateDhcpIpPool\",\"DeleteDhcpProfile\",\"DeleteDhcpServer\",\"DeleteDhcpStaticBinding\",\"DeleteDhcpIpPool\")\n| stats count as Count,first(_time) as time by user operation object_id \n| eval time=strftime(time,\"%+\") \n| table time user operation object_id Count",
                "queryParameters": {
                    "earliest": "$global_time.earliest$",
                    "latest": "$global_time.latest$"
                }
            },
            "name": "DHCP Audit Details"
        },
        "ds_r5rC5tkl_ds_rkb8gxjg_ds_t5CdXBkK_ds_yNHsUfdM_ds_xHBDdyrq_ds_p9lXLZxo": {
            "type": "ds.search",
            "options": {
                "query": "index=nsx sourcetype=\"nsx:dhcp\" comp=\"nsx-manager\"\nstatus=\"success\"\noperation IN (\"CreateDhcpProfile\",\"CreateDhcpServer\",\"CreateDhcpStaticBinding\",\"CreateDhcpIpPool\",\"UpdateDhcpProfile\",\"UpdateDhcpServer\",\"UpdateDhcpStaticBinding\",\"UpdateDhcpIpPool\",\"DeleteDhcpProfile\",\"DeleteDhcpServer\",\"DeleteDhcpStaticBinding\",\"DeleteDhcpIpPool\") \n| stats count \n| appendpipe [stats count \n| eval NoResult=\"\" \n| where count=0 \n| fields - count]",
                "queryParameters": {
                    "earliest": "$global_time.earliest$",
                    "latest": "$global_time.latest$"
                }
            },
            "name": "NSX_DHCP_Audit"
        },
        "ds_Nxuqq9oj_ds_r5rC5tkl_ds_rkb8gxjg_ds_t5CdXBkK_ds_yNHsUfdM_ds_xHBDdyrq_ds_p9lXLZxo": {
            "type": "ds.search",
            "options": {
                "query": "index=nsx errorCode=* \n| stats count",
                "queryParameters": {
                    "earliest": "$global_time.earliest$",
                    "latest": "$global_time.latest$"
                }
            },
            "name": "NSX_Infra_Error_Count"
        },
        "ds_yuP5zDvY_ds_J9rGwkKv_ds_JYbW2Re0_ds_dUq4mTVY_ds_kleu2lSw_ds_iDimwXrT_ds_WVi2OrFk": {
            "type": "ds.search",
            "options": {
                "query": "index=nsx errorCode=*\n| stats count by comp subcomp s2comp errorCode message host",
                "queryParameters": {
                    "earliest": "$global_time.earliest$",
                    "latest": "$global_time.latest$"
                }
            },
            "name": "NSX Infratructure Errors Details"
        }
    },
    "defaults": {
        "dataSources": {
            "ds.search": {
                "options": {
                    "queryParameters": {
                        "latest": "$global_time.latest$",
                        "earliest": "$global_time.earliest$"
                    }
                }
            }
        }
    },
    "inputs": {
        "input_global_trp": {
            "type": "input.timerange",
            "options": {
                "token": "global_time",
                "defaultValue": "-24h@h,now"
            },
            "title": "Global Time Range"
        }
    },
    "layout": {
        "type": "grid",
        "options": {
            "width": 1440,
            "height": 960
        },
        "structure": [
            {
                "item": "viz_ZFtHKWC4",
                "type": "block",
                "position": {
                    "x": 0,
                    "y": 0,
                    "w": 158,
                    "h": 400
                }
            },
            {
                "item": "viz_hF0v9KHb",
                "type": "block",
                "position": {
                    "x": 0,
                    "y": 400,
                    "w": 158,
                    "h": 400
                }
            },
            {
                "item": "viz_wyxo9A0R",
                "type": "block",
                "position": {
                    "x": 0,
                    "y": 800,
                    "w": 158,
                    "h": 503
                }
            },
            {
                "item": "viz_tArvM7aH",
                "type": "block",
                "position": {
                    "x": 0,
                    "y": 1303,
                    "w": 158,
                    "h": 359
                }
            },
            {
                "item": "viz_tmlPiamy",
                "type": "block",
                "position": {
                    "x": 0,
                    "y": 1662,
                    "w": 158,
                    "h": 359
                }
            },
            {
                "item": "viz_gyyVlCRO",
                "type": "block",
                "position": {
                    "x": 0,
                    "y": 2021,
                    "w": 158,
                    "h": 352
                }
            },
            {
                "item": "viz_cdMNqeK5",
                "type": "block",
                "position": {
                    "x": 0,
                    "y": 2373,
                    "w": 158,
                    "h": 316
                }
            },
            {
                "item": "viz_khw19YMn",
                "type": "block",
                "position": {
                    "x": 0,
                    "y": 2689,
                    "w": 158,
                    "h": 322
                }
            },
            {
                "item": "viz_Yc0NO3bu",
                "type": "block",
                "position": {
                    "x": 0,
                    "y": 3011,
                    "w": 158,
                    "h": 361
                }
            },
            {
                "item": "viz_s49BdpdQ",
                "type": "block",
                "position": {
                    "x": 158,
                    "y": 0,
                    "w": 1282,
                    "h": 400
                }
            },
            {
                "item": "viz_MoHPL9Lr",
                "type": "block",
                "position": {
                    "x": 158,
                    "y": 400,
                    "w": 1282,
                    "h": 400
                }
            },
            {
                "item": "viz_8J1KKc2s",
                "type": "block",
                "position": {
                    "x": 158,
                    "y": 800,
                    "w": 1282,
                    "h": 503
                }
            },
            {
                "item": "viz_RBax75oU",
                "type": "block",
                "position": {
                    "x": 158,
                    "y": 1303,
                    "w": 1282,
                    "h": 359
                }
            },
            {
                "item": "viz_7tOzGACI",
                "type": "block",
                "position": {
                    "x": 158,
                    "y": 1662,
                    "w": 1282,
                    "h": 359
                }
            },
            {
                "item": "viz_PJDthxuD",
                "type": "block",
                "position": {
                    "x": 158,
                    "y": 2021,
                    "w": 1282,
                    "h": 352
                }
            },
            {
                "item": "viz_eJlMG986",
                "type": "block",
                "position": {
                    "x": 158,
                    "y": 2373,
                    "w": 1282,
                    "h": 316
                }
            },
            {
                "item": "viz_z6LgzmDX",
                "type": "block",
                "position": {
                    "x": 158,
                    "y": 2689,
                    "w": 1282,
                    "h": 322
                }
            },
            {
                "item": "viz_jZ3LNBJi",
                "type": "block",
                "position": {
                    "x": 158,
                    "y": 3011,
                    "w": 1282,
                    "h": 361
                }
            }
        ],
        "globalInputs": [
            "input_global_trp"
        ]
    },
    "description": "",
    "title": "NSX Audits Overview"
}