{
	"visualizations": {
		"viz_vdP68uUA": {
			"type": "splunk.singlevalue",
			"dataSources": {
				"primary": "ds_59hhaXHP"
			},
			"title": "Logical Router Created",
			"description": "Count of events"
		},
		"viz_sIbCts51": {
			"type": "splunk.singlevalue",
			"dataSources": {
				"primary": "ds_hkzSdBpU_ds_59hhaXHP"
			},
			"title": "Logical Router Updates",
			"description": "Count of events"
		},
		"viz_CPmsxI5X": {
			"type": "splunk.singlevalue",
			"dataSources": {
				"primary": "ds_x9TvgaIJ_ds_hkzSdBpU_ds_59hhaXHP"
			},
			"title": "Logical Router Deleted",
			"description": "Count of events"
		},
		"viz_1vUvf1SF": {
			"type": "splunk.table",
			"dataSources": {
				"primary": "ds_RCJaXCvJ"
			},
			"title": "Logical Router Audit Details",
			"showProgressBar": false,
			"showLastUpdated": false
		},
		"viz_HZyhlZFr": {
			"type": "splunk.column",
			"dataSources": {
				"primary": "ds_d5yUgmlP_ds_RCJaXCvJ"
			},
			"title": "Logical Router - Manager Errors",
			"showProgressBar": false,
			"showLastUpdated": false,
			"description": "Count of events over time grouped by hostname"
		},
		"viz_jXEC8TA4": {
			"type": "splunk.column",
			"dataSources": {
				"primary": "ds_h8oP5hnB_ds_d5yUgmlP_ds_RCJaXCvJ"
			},
			"title": "Logical Router - Controller Errors",
			"showProgressBar": false,
			"showLastUpdated": false,
			"description": "Count of events over time grouped by hostname"
		},
		"viz_ksDDfDTn": {
			"type": "splunk.column",
			"dataSources": {
				"primary": "ds_c3fiWOhW_ds_h8oP5hnB_ds_d5yUgmlP_ds_RCJaXCvJ"
			},
			"title": "Logical Router - Transport Node Errors",
			"showProgressBar": false,
			"showLastUpdated": false,
			"description": "Count of events over time grouped by hostname"
		}
	},
	"dataSources": {
		"ds_59hhaXHP": {
			"type": "ds.search",
			"options": {
				"query": "index=nsx sourcetype=\"nsx:routing\" comp=\"nsx-manager\" status=\"success\" operation = \"CreateLogicalRouter\"\n| stats count \n| appendpipe [stats count \n| eval NoResult=\"\" \n| where count=0 \n| fields - count]",
				"queryParameters": {
					"earliest": "$global_time.earliest$",
					"latest": "$global_time.latest$"
				}
			},
			"name": "Logical_Router_Created"
		},
		"ds_hkzSdBpU_ds_59hhaXHP": {
			"type": "ds.search",
			"options": {
				"query": "index=nsx sourcetype=\"nsx:routing\" comp=\"nsx-manager\" status=\"success\" operation = \"UpdateLogicalRouter\"\n| stats count \n| appendpipe [stats count \n| eval NoResult=\"\" \n| where count=0 \n| fields - count]",
				"queryParameters": {
					"earliest": "$global_time.earliest$",
					"latest": "$global_time.latest$"
				}
			},
			"name": "Logical_Router_Updates"
		},
		"ds_x9TvgaIJ_ds_hkzSdBpU_ds_59hhaXHP": {
			"type": "ds.search",
			"options": {
				"query": "index=nsx sourcetype=\"nsx:routing\" comp=\"nsx-manager\" status=\"success\" operation = \"DeleteLogicalRouter\"\n| stats count \n| appendpipe [stats count \n| eval NoResult=\"\" \n| where count=0 \n| fields - count]",
				"queryParameters": {
					"earliest": "$global_time.earliest$",
					"latest": "$global_time.latest$"
				}
			},
			"name": "Logical_Router_Deleted"
		},
		"ds_RCJaXCvJ": {
			"type": "ds.search",
			"options": {
				"query": "index=nsx sourcetype=\"nsx:routing\" comp=\"nsx-manager\" status=\"success\" \noperation IN (\"CreateLogicalRouter\",\"UpdateLogicalRouter\",\"DeleteLogicalRouter\" ) \n| fillnull value=NULL \n| stats count as Count,first(_time) as time by user operation object_id \n| eval time=strftime(time,\"%+\") \n| table time user operation object_id Count",
				"queryParameters": {
					"earliest": "$global_time.earliest$",
					"latest": "$global_time.latest$"
				}
			},
			"name": "Logical_Router_Audit_Details"
		},
		"ds_d5yUgmlP_ds_RCJaXCvJ": {
			"type": "ds.search",
			"options": {
				"query": "index=nsx sourcetype=\"nsx:routing\" comp=\"nsx-manager\" errorCode=*\n| timechart count by host",
				"queryParameters": {
					"earliest": "$global_time.earliest$",
					"latest": "$global_time.latest$"
				}
			},
			"name": "Logical_Router_Manager_Errors"
		},
		"ds_h8oP5hnB_ds_d5yUgmlP_ds_RCJaXCvJ": {
			"type": "ds.search",
			"options": {
				"query": "index=nsx sourcetype=\"nsx:routing\" comp=\"nsx-controller\" errorCode=* (subcomp=\"app-vdr\" OR subcomp=\"app-config\")\n| timechart count by host",
				"queryParameters": {
					"earliest": "$global_time.earliest$",
					"latest": "$global_time.latest$"
				}
			},
			"name": "Logical_Routerh_Controller_Errors"
		},
		"ds_c3fiWOhW_ds_h8oP5hnB_ds_d5yUgmlP_ds_RCJaXCvJ": {
			"type": "ds.search",
			"options": {
				"query": "index=nsx sourcetype=\"nsx:routing\" errorCode=* AND \nsubcomp=\"vdrb\" AND (comp=\"nsx-esx\" OR comp=\"nsx-edge\" OR comp=\"nsx-kvm\")\n| regex errorCode=\"^(LCP(0103[0-9]*|009[0-9]*))$\"\n| timechart count by host",
				"queryParameters": {
					"earliest": "$global_time.earliest$",
					"latest": "$global_time.latest$"
				}
			},
			"name": "Logical_Router_Transport_Node_Errors"
		}
	},
	"defaults": {
		"dataSources": {
			"ds.search": {
				"options": {
					"queryParameters": {
						"latest": "$global_time.latest$",
						"earliest": "$global_time.earliest$"
					}
				}
			}
		}
	},
	"inputs": {
		"input_global_trp": {
			"type": "input.timerange",
			"options": {
				"token": "global_time",
				"defaultValue": "-24h@h,now"
			},
			"title": "Global Time Range"
		}
	},
	"layout": {
		"type": "grid",
		"options": {
			"width": 1440,
			"height": 5000
		},
		"structure": [
			{
				"item": "viz_vdP68uUA",
				"type": "block",
				"position": {
					"x": 0,
					"y": 0,
					"w": 466,
					"h": 400
				}
			},
			{
				"item": "viz_1vUvf1SF",
				"type": "block",
				"position": {
					"x": 0,
					"y": 400,
					"w": 1440,
					"h": 400
				}
			},
			{
				"item": "viz_HZyhlZFr",
				"type": "block",
				"position": {
					"x": 0,
					"y": 800,
					"w": 1440,
					"h": 401
				}
			},
			{
				"item": "viz_jXEC8TA4",
				"type": "block",
				"position": {
					"x": 0,
					"y": 1201,
					"w": 1440,
					"h": 400
				}
			},
			{
				"item": "viz_ksDDfDTn",
				"type": "block",
				"position": {
					"x": 0,
					"y": 1601,
					"w": 1440,
					"h": 400
				}
			},
			{
				"item": "viz_sIbCts51",
				"type": "block",
				"position": {
					"x": 466,
					"y": 0,
					"w": 508,
					"h": 400
				}
			},
			{
				"item": "viz_CPmsxI5X",
				"type": "block",
				"position": {
					"x": 974,
					"y": 0,
					"w": 466,
					"h": 400
				}
			}
		],
		"globalInputs": [
			"input_global_trp"
		]
	},
	"description": "",
	"title": "NSX Logical Router"
}